Using CPUID GenuineIntel-6-8E-9
Compression enabled, disabling build id collection at the end of the session.
path: /home/lucas/Desktop/soii-2021-ipc-lmonsierra/profiling/paralelo-8-O3/r002ue/data.0
basename: system-wide.perf
nr_cblocks: 0
affinity: SYS
mmap flush: 1
comp level: 1
mmap size 528384B
thread 0 monitor: 0 allowed: 0
thread 1 monitor: 1 allowed: 1
thread 2 monitor: 2 allowed: 2
thread 3 monitor: 3 allowed: 3
couldn't open /proc/1/task/1/maps
couldn't open /proc/1340/task/1340/maps
couldn't open /proc/1347/task/1347/maps
couldn't open /proc/13725/task/13725/maps
couldn't open /proc/1445/task/1445/maps
couldn't open /proc/1523/task/1523/maps
couldn't open /proc/1549/task/1549/maps
couldn't open /proc/1556/task/1556/maps
couldn't open /proc/1860/task/1860/maps
couldn't open /proc/190/task/190/maps
couldn't open /proc/2005/task/2005/maps
couldn't open /proc/2093/task/2093/maps
couldn't open /proc/212/task/212/maps
couldn't open /proc/2174/task/2174/maps
couldn't open /proc/756/task/756/maps
couldn't open /proc/763/task/763/maps
couldn't open /proc/764/task/764/maps
couldn't open /proc/765/task/765/maps
couldn't open /proc/766/task/766/maps
couldn't open /proc/767/task/767/maps
couldn't open /proc/769/task/769/maps
couldn't open /proc/770/task/770/maps
couldn't open /proc/771/task/771/maps
couldn't open /proc/772/task/772/maps
couldn't open /proc/813/task/813/maps
couldn't open /proc/827/task/827/maps
couldn't open /proc/849/task/849/maps
couldn't open /proc/998/task/998/maps
cmd_pipe: /tmp/amplxe-tmp-lucas/perf-pipe-19537-10903311447782

19559:perf-sync:ready:TSC=10905237630687
[ perf record: Woken up 73 times to write data ]
[ perf record: Captured and wrote 5,821 MB /home/lucas/Desktop/soii-2021-ipc-lmonsierra/profiling/paralelo-8-O3/r002ue/data.0, compressed (original 1,203 MB, ratio is 7,619) ]
