Using CPUID GenuineIntel-6-8E-9
Warning:
UNC_IMC_DRAM_DATA_READS event is not supported by the kernel.
Warning:
UNC_IMC_DRAM_DATA_WRITES event is not supported by the kernel.
cmd_pipe: /tmp/amplxe-tmp-lucas/perf-pipe-22607-55079673229183

22615:perf-sync:ready:TSC=55079958188820
failed to read counter UNC_IMC_DRAM_DATA_READS
failed to read counter UNC_IMC_DRAM_DATA_WRITES
